<svg width="20" height="21" viewBox="0 0 20 21" fill="none" xmlns="http://www.w3.org/2000/svg">
<g id="Feather Icons/fi:external-link">
<path id="Vector" d="M14.9994 11.3338V16.3342C14.9994 16.7763 14.8238 17.2003 14.5112 17.5128C14.1986 17.8254 13.7746 18.001 13.3326 18.001H4.1651C3.72304 18.001 3.29908 17.8254 2.98649 17.5128C2.6739 17.2003 2.49829 16.7763 2.49829 16.3342V7.16678C2.49829 6.72471 2.6739 6.30075 2.98649 5.98817C3.29908 5.67558 3.72304 5.49997 4.1651 5.49997H9.16553" stroke="#42ECE6" stroke-width="1.66678" stroke-linecap="round" stroke-linejoin="round"/>
<path id="Vector_2" d="M12.499 2.99945H17.5V8.00046" stroke="#42ECE6" stroke-width="1.66678" stroke-linecap="round" stroke-linejoin="round"/>
<path id="Vector_3" d="M8.33228 12.1669L17.4997 2.99945" stroke="#42ECE6" stroke-width="1.66678" stroke-linecap="round" stroke-linejoin="round"/>
</g>
</svg>
