<?xml version="1.0" encoding="utf-8"?>
<!-- Generator: Adobe Illustrator 24.3.0, SVG Export Plug-In . SVG Version: 6.00 Build 0)  -->
<svg version="1.1" id="Calque_1" xmlns="http://www.w3.org/2000/svg" xmlns:xlink="http://www.w3.org/1999/xlink" x="0px" y="0px"
	 viewBox="0 0 595.3 841.9" style="enable-background:new 0 0 595.3 841.9;" xml:space="preserve">
<style type="text/css">
	.st0{fill:#159A15;}
</style>
<path class="st0" d="M323.6,234.7c124.5-0.1,217.2,98.8,221.5,212.6c5,130.3-99.4,230.9-220.9,230.7
	c-123.5-0.2-219.6-97.5-222.1-216.5C99.6,334.8,200.1,234.4,323.6,234.7z M324.5,278.2c-100.7,1.4-177.7,76.1-178.3,177.5
	c-0.6,99.7,76,178,177.3,178.2c99.8,0.2,177.5-75.9,177.9-176.8C501.9,357.7,427.4,280.7,324.5,278.2z"/>
<path class="st0" d="M223.6,403.6c6.5-17.5,14.7-32.7,27.5-45.1c18.5-17.8,41.4-24.7,66.5-24.9c37.8-0.2,70.4,11.6,92.8,43.8
	c11.7,16.8,18.2,36,20.3,56.3c2.8,26.3,2.6,52.2-6.9,77.5c-16.5,44.1-59.3,71.6-106.4,68.8c-26.4-1.6-49.6-9.8-68.2-29.1
	c-11.6-12-19-26.4-24.5-42c-1.6-4.6,1.3-5.2,4.1-6.2c11.6-3.9,23.4-7.5,34.9-11.6c4.8-1.7,6.7-0.3,8.3,4.3
	c4.2,11.9,9.7,23,19.8,31.4c22.8,19,58.2,13.9,74.9-10.6c12.8-18.8,14.9-40.2,14.9-61.8c0-14.7-1.7-29.4-7.4-43.3
	c-8.4-20.8-23.3-33.3-45.6-36c-23.2-2.8-41,6.1-52.3,27c-6.9,12.6-6.9,12.7-20.6,9.4C245.2,409.1,234.6,406.4,223.6,403.6z"/>
</svg>
